Tidy Tuesday 4-9-18 |
…
    ggplot, 
    
    Tidy Tuesday, 
    
    Instructional

library(tidyverse)
library(magrittr)

Read data into R

rawData <- readxl::read_excel("../../static/data/tidy_tuesday_week2.xlsx")
rawData

## # A tibble: 800 x 11
##     year Cornerback `Defensive Line~ Linebacker `Offensive Line~
##    <dbl>      <dbl>            <dbl>      <dbl>            <dbl>
##  1  2011   11265916         17818000   16420000         15960000
##  2  2011   11000000         16200000   15623000         12800000
##  3  2011   10000000         12476000   11825000         11767500
##  4  2011   10000000         11904706   10083333         10358200
##  5  2011   10000000         11762782   10020000         10000000
##  6  2011    9244117         11340000    8150000          9859166
##  7  2011    8000000         10000000    7812500          9500000
##  8  2011    7900000          9482500    7700000          9420000
##  9  2011    7400000          8450000    7200000          8880000
## 10  2011    7000000          8383266    7100000          8686750
## # ... with 790 more rows, and 6 more variables: Quarterback <dbl>,
## #   `Running Back` <dbl>, Safety <dbl>, `Special Teamer` <dbl>, `Tight
## #   End` <dbl>, `Wide Receiver` <dbl>
…
